    1  ls
    2  history
    3  cd /home
    4  mkdir FilipWojnicki
    5  cd ubuntu/
    6  ls
    7  ls -la
    8  mkdir FilipWojnicki
    9  ls
   10  cd FilipWojnicki/
   11  mkdir auta
   12  cd auta
   13  mkdir ciezarowe && mkdir osobowe
   14  cd ciezarowe/
   15  mkdir man && mkdir scania && mkdir volvo
   16  cd ../
   17  cd osobowe/
   18  mkdir audi && mkdir bmw && mkdir seat
   19  ls
   20  cd ../ciezarowe/
   21  ls
   22  cd ../
   23  tree
   24  apt install tree
   25  sudo apt install tree
   26  tree
   27  cd auta/osobowe/
   28  touch rejestracje.txt
   29  ls
   30  echo 'sc 12345\nsc 23456\nsc 34567\nsc 12345\nsc 78654\nsc 89054\nsc 90765\nsc 82345\nsc 45678\nsc 1231' > rejestracje.txt 
   31  cat rejestracje.txt 
   32  echo '' > rejestracje.txt 
   33  echo 'sc 12345' >> rejestracje.txt 
   34  echo 'sc 22345' >> rejestracje.txt 
   35  ls
   36  cat rejestracje.txt 
   37  echo 'sc 12345' > rejestracje.txt 
   38  echo 'sc 21345' >> rejestracje.txt 
   39  echo 'sc 31345' >> rejestracje.txt 
   40  echo 'sc 41345' >> rejestracje.txt 
   41  echo 'sc 51345' >> rejestracje.txt 
   42  echo 'sc 61345' >> rejestracje.txt 
   43  echo 'sc 71345' >> rejestracje.txt 
   44  echo 'sc 81345' >> rejestracje.txt 
   45  echo 'sc 91345' >> rejestracje.txt 
   46  echo 'sc 10345' >> rejestracje.txt 
   47  cat rejestracje.txt 
   48  cp rejestracje.txt rejestracje-kopia.txt
   49  pwd >> rejestracje.txt 
   50  cat rejestracje
   51  cat rejestracje.txt 
   52  head -2 rejestracje.txt 
   53  tail -3 rejestracje.txt 
   54  cd .. && mv ciezarowe CIEZAROWE
   55  ls
   56  cat osobowe/rejestracje.txt 
   57  cd osobowe
   58  chmod uo+rw,g+r rejestracje.txt 
   59  ls -a
   60  ls -la
   61  chmod 644 rejestracje.txt 
   62  ls -la
   63  chmod uo+rw,g+r rejestracje.txt 
   64  ls -la
   65  cd audi/
   66  pwd
   67  find /etc -type f -size +20k -size -1M -exec ls -l {} +
   68  sudo find /etc -type f -size +20k -size -1M -exec ls -l {} +
   69  sudo find /etc -type f -size +20k -size -1M
   70  sudo find etc/ -type f -size +20k -size -1M
   71  sudo find /etc/ -type f -size +20k -size -1M
   72  sudo find /etc/ -type f -size +20k -size -100M
   73  sudo find /etc/ -type f -size +20k -size -1M
   74  sudo find /etc/ -type f -size +20k -size -1M > out.txt
   75  cat out.txt 
   76  sudo find /etc -type f -size +20k -size -1M > out.txt
   77  sudo find /etc -type f -size +20k -size -100k > out.txt
   78  cat out.txt 
   79  sudo find /etc -type f -size +20k -size -1000k > out.txt
   80  cat out.txt 
   81  cd ..
   82  cd bmw/
   83  ls
   84  cd ../audi/
   85  cat out.txt 
   86  Cd ../bmw/
   87  cd ../bmw/
   88  sudo cat /etc/passwd
   89  sudo cat /etc/passwd | grep bash
   90  sudo cat /etc/passwd | grep -n bash
   91  sudo cat /etc/passwd | grep -n bash > out.txt
   92  cat out.txt 
   93  cd /home/ubuntu/
   94  tar czf kolokwium.tar FilipWojnicki/
   95  ls
   96  mkdir test
   97  mv kolokwium.tar test/
   98  ls
   99  cd test/
  100  cp kolokwium.tar ../kolokwium.tar
  101  cd ../
  102  mv test backup
  103  cd backup/
  104  .s
  105  ls
  106  mv kolokwium.tar 1.tar
  107  cd ..
  108  cp kolokwium.tar backup/kolokwium.tar
  109  cd backup/
  110  ls
  111  tar xvzf kolokwium.tar
  112  cd ..
  113  history > historia.txt
